<svg width="128" height="128" viewBox="0 0 128 128" fill="none" xmlns="http://www.w3.org/2000/svg">
<rect y="60.1914" width="22.9776" height="7.49268" rx="3.74634" fill="#8246AF"/>
<rect x="67.6841" width="22.9776" height="7.49268" rx="3.74634" transform="rotate(90 67.6841 0)" fill="#8246AF"/>
<rect x="104.897" y="60.1914" width="22.9776" height="7.49268" rx="3.74634" fill="#8246AF"/>
<rect x="90.4116" y="32.2324" width="22.9776" height="7.49268" rx="3.74634" transform="rotate(-45 90.4116 32.2324)" fill="#8246AF"/>
<rect width="22.9776" height="7.49268" rx="3.74634" transform="matrix(-0.707107 -0.707107 -0.707107 0.707107 37.53 32.2324)" fill="#8246AF"/>
<path d="M78.7981 112.89H49.0771V117.26C49.0771 123.192 53.8854 128 59.8167 128H68.0586C73.9899 128 78.7981 123.192 78.7981 117.26V112.89Z" fill="#8246AF"/>
<path fill-rule="evenodd" clip-rule="evenodd" d="M30.2205 63.6875C30.2205 44.9282 45.4279 29.7207 64.1873 29.7207C82.9467 29.7207 98.1541 44.9282 98.1541 63.6875C98.1541 73.9691 93.586 83.1837 86.3687 89.4124C84.7922 91.0358 83.5373 94.1224 83.0439 96.7802C82.7064 98.9031 82.6692 101.151 82.6692 102.525C82.6692 105.295 82.1356 105.291 80.0815 105.275C79.9137 105.273 79.7359 105.272 79.5473 105.272H64.1873H49.077C47.079 105.272 45.0809 104.772 45.0809 102.525V96.7802C45.0809 92.909 40.7102 88.235 40.7102 88.235C34.2462 82.0511 30.2205 73.3394 30.2205 63.6875ZM43.7075 56.5693C43.7075 54.3941 45.1595 51.3314 47.6276 48.7037C50.0935 46.0782 53.0375 44.4561 55.446 44.4561C56.6185 44.4561 57.5689 43.5057 57.5689 42.3332C57.5689 41.1608 56.6185 40.2103 55.446 40.2103C51.3609 40.2103 47.3741 42.7717 44.5327 45.7969C41.6935 48.8199 39.4616 52.8753 39.4616 56.5693C39.4616 57.7418 40.4121 58.6922 41.5845 58.6922C42.757 58.6922 43.7075 57.7418 43.7075 56.5693Z" fill="#8246AF"/>
</svg>
