<?xml version="1.0" encoding="utf-8"?>
<!-- Generator: Adobe Illustrator 26.0.0, SVG Export Plug-In . SVG Version: 6.00 Build 0)  -->
<svg version="1.1" id="Layer_1" xmlns="http://www.w3.org/2000/svg" xmlns:xlink="http://www.w3.org/1999/xlink" x="0px" y="0px"
	 viewBox="0 0 22 19" style="enable-background:new 0 0 22 19;" xml:space="preserve">
<style type="text/css">
	.st0{fill:#7DBE38;}
</style>
<path class="st0" d="M21.5,1.9c0,3.4,0,6.7,0,10.1c-0.1,0-0.2-0.1-0.3-0.2c-1.3-1.3-2.6-2.6-3.9-3.9c-0.1-0.1-0.3-0.3-0.4-0.4
	C16.5,7.2,16.1,7,15.7,7c-0.9-0.1-1.6,0.3-2.2,1c-1.2,1.6-2.5,3.2-3.7,4.7c-0.3,0.4-0.2,0.4-0.6,0c-0.7-0.7-1.3-1.3-2-2
	C6.7,10.2,6,9.9,5.1,10.1c-0.6,0.1-1.1,0.5-1.5,1c-1.1,1.5-2.3,2.9-3.4,4.4c-0.1,0.1-0.1,0.2-0.2,0.2c-0.1-0.1,0-0.2,0-0.2
	C0,11,0,6.7,0,2.3C0,1,1,0,2.3,0c5.6,0,11.3,0,16.9,0c0.8,0,1.4,0.4,1.9,1C21.3,1.3,21.4,1.6,21.5,1.9z M7.7,7.7
	c1.2,0,2.3-1,2.3-2.3c0-1.2-1-2.3-2.3-2.3c-1.3,0-2.3,1-2.3,2.3C5.4,6.6,6.5,7.7,7.7,7.7z"/>
<path class="st0" d="M19.6,18.4c-4.1,0-8.2,0-12.4,0c0-0.1,0.1-0.2,0.2-0.3c1.1-1.3,2.1-2.7,3.2-4c1.4-1.8,2.8-3.5,4.2-5.3
	c0.4-0.5,0.9-0.5,1.3-0.1c1.8,1.8,3.6,3.6,5.4,5.4c0,0.8,0,1.6,0,2.4C21.2,17.5,20.6,18.2,19.6,18.4z"/>
<path class="st0" d="M1.9,18.4c-0.4-0.1-0.8-0.3-1.2-0.6c-0.2-0.1-0.2-0.3,0-0.4c1.4-1.8,2.8-3.6,4.2-5.4c0.4-0.5,0.9-0.6,1.4-0.1
	c0.7,0.7,1.5,1.5,2.2,2.2c0.2,0.2,0.2,0.3,0,0.4c-1,1.3-2.1,2.6-3.1,3.9C4.2,18.4,3,18.4,1.9,18.4z"/>
</svg>
