<svg width="22" height="19" viewBox="0 0 22 19" fill="none" xmlns="http://www.w3.org/2000/svg">
<path d="M21.4844 1.88691C21.4844 5.23914 21.4844 8.59138 21.4844 11.9431C21.3658 11.9163 21.3049 11.8149 21.2276 11.7381C19.9163 10.4303 18.6075 9.12048 17.2968 7.81262C17.1671 7.68298 17.0332 7.55623 16.8891 7.44292C16.5425 7.16973 16.1493 7.00889 15.7052 6.97528C14.7843 6.9047 14.0996 7.29696 13.5441 8.01139C12.3092 9.59869 11.0542 11.1706 9.80681 12.7483C9.51249 13.1209 9.57011 13.1113 9.23786 12.7805C8.57625 12.1217 7.91703 11.4601 7.25542 10.8009C6.66967 10.2171 5.97588 9.94822 5.14575 10.0937C4.50526 10.206 4.02897 10.5671 3.64007 11.0746C2.51802 12.5375 1.38828 13.9947 0.259985 15.4524C0.199489 15.5306 0.156758 15.6324 0.0448885 15.6636C-0.0208887 15.5931 0.00503807 15.5095 0.00503807 15.4341C0.00455794 11.0443 0.00215731 6.65552 0.00647845 2.26621C0.0074387 1.02268 1.03779 0.00289204 2.29044 0.00241191C7.93432 -0.000948969 13.5787 -0.000948969 19.223 0.00337216C20.0325 0.00385229 20.6596 0.372589 21.121 1.03228C21.302 1.29203 21.3956 1.58827 21.4844 1.88691ZM7.69858 7.6585C8.92434 7.65274 9.95853 6.61951 9.96477 5.39519C9.97101 4.15934 8.92866 3.10451 7.70146 3.10498C6.44977 3.10547 5.4151 4.1387 5.40981 5.39327C5.40453 6.61519 6.46465 7.66474 7.69858 7.6585Z" fill="white"/>
<path d="M19.6162 18.4082C15.4963 18.4082 11.3763 18.4082 7.25635 18.4082C7.27651 18.3002 7.35717 18.2291 7.42055 18.1489C8.47779 16.8094 9.53646 15.4708 10.5947 14.1322C11.9942 12.362 13.3924 10.5908 14.7934 8.82152C15.1741 8.34091 15.6763 8.29002 16.0887 8.70101C17.8902 10.4972 19.6863 12.2986 21.4849 14.0981C21.4849 14.9124 21.4849 15.7262 21.4849 16.5405C21.2328 17.5344 20.6115 18.158 19.6162 18.4082Z" fill="white"/>
<path d="M1.89096 18.408C1.44636 18.286 1.04162 18.0944 0.703128 17.7704C0.550448 17.6244 0.523081 17.5116 0.665198 17.3286C2.06188 15.5358 3.44897 13.7354 4.83989 11.9383C5.2528 11.4048 5.73581 11.3765 6.21641 11.8557C6.95101 12.5874 7.67888 13.3258 8.42019 14.0508C8.58295 14.2097 8.57719 14.3149 8.44083 14.4863C7.40184 15.7894 6.37245 17.1001 5.3397 18.4084C4.19076 18.408 3.04086 18.408 1.89096 18.408Z" fill="white"/>
</svg>
