<svg width="29" height="29" viewBox="0 0 29 29" fill="none" xmlns="http://www.w3.org/2000/svg">
<path d="M13.9464 0C14.2852 0 14.624 0 14.9628 0C15.6172 0.153021 16.1344 0.51948 16.6042 0.990965C20.3438 4.74139 24.0879 8.48673 27.8394 12.2247C28.3369 12.7205 28.7451 13.253 28.91 13.9469C28.91 14.2857 28.91 14.6245 28.91 14.9633C28.5294 16.3077 27.6745 17.0706 26.2505 17.1513C25.8626 17.1733 25.8553 17.1948 25.8553 17.6296C25.8547 20.2225 25.8553 22.8159 25.8541 25.4088C25.8536 26.0915 25.7807 26.7572 25.4222 27.3642C24.9287 28.1993 24.1879 28.6815 23.263 28.9102C21.4375 28.9102 19.6115 28.9102 17.786 28.9102C17.3489 28.69 17.1942 28.3326 17.197 27.8498C17.2095 25.6877 17.2038 23.5263 17.2016 21.3642C17.2004 20.4517 16.6386 19.8905 15.7228 19.8848C14.8956 19.8797 14.0672 19.9113 13.2417 19.8763C12.2491 19.8346 11.6856 20.6081 11.6969 21.419C11.7268 23.5618 11.7003 25.7052 11.7121 27.8481C11.7149 28.3298 11.5597 28.6889 11.1238 28.9102C9.29827 28.9102 7.47222 28.9102 5.64674 28.9102C4.73371 28.6827 3.99572 28.2129 3.49997 27.3902C3.13578 26.786 3.05221 26.1237 3.05164 25.4393C3.05051 23.8797 3.05108 22.3196 3.05108 20.76C3.05108 19.6793 3.04656 18.5985 3.0539 17.5183C3.0556 17.2722 2.97203 17.1575 2.71568 17.1502C2.44465 17.1429 2.1725 17.1203 1.90937 17.0378C0.871563 16.7137 0.267961 15.9932 -0.000244141 14.9633C-0.000244141 14.6245 -0.000244141 14.2857 -0.000244141 13.9469C0.155032 13.2829 0.531084 12.7617 1.00934 12.2851C4.76703 8.53924 8.51907 4.78769 12.2643 1.02993C12.7471 0.545455 13.2711 0.156409 13.9464 0Z" fill="white"/>
</svg>
