<svg width="20" height="20" viewBox="0 0 20 20" fill="none" xmlns="http://www.w3.org/2000/svg">
<path d="M6.77405 1.74076C7.51518 1.9649 8.25787 2.19137 8.99666 2.41395C9.89945 2.68494 9.99629 2.81146 9.99629 3.7572V16.6251H13.3333V16.2041C13.3333 15.0202 13.3333 13.8355 13.3333 12.6516C13.3333 12.0479 13.6504 11.6722 14.1471 11.6629C14.6594 11.6535 14.9913 12.0424 14.9921 12.6633C14.9921 14.2252 14.9921 15.7871 14.9921 17.349C14.9921 18.0097 14.6797 18.3307 14.0104 18.3346C12.8265 18.3416 11.6418 18.3346 10.4578 18.3346H9.99629C9.99629 18.6267 10.0057 18.8813 9.99629 19.1405C9.97208 19.7169 9.53162 20.0816 8.96698 19.9699C6.22581 19.4279 3.4862 18.8813 0.747379 18.3299C0.228821 18.2229 0 17.9238 0 17.3849C0 11.9182 0 6.45151 0 0.98479C0 0.328784 0.328003 0 0.988695 0C5.34879 0 9.70889 0 14.0682 0C14.6633 0 14.9944 0.329565 14.9944 0.91919C14.9999 2.53343 14.9999 4.1469 14.9944 5.76114C14.9944 6.29922 14.6571 6.65144 14.1713 6.65456C13.6855 6.65768 13.3435 6.32031 13.3388 5.7791C13.3294 4.56862 13.3388 3.35813 13.3349 2.14764V1.69234H6.79435C6.78654 1.70796 6.77951 1.72436 6.7717 1.74076" fill="white"/>
<path d="M17.0796 9.99639H12.9467C12.8038 9.99639 12.6609 10.0011 12.518 9.99639C12.0182 9.97296 11.6589 9.62387 11.6636 9.16232C11.6683 8.70078 12.0197 8.34622 12.5227 8.34154C13.8886 8.3306 15.256 8.33685 16.6212 8.33607H17.0327L17.1296 8.19393C16.775 7.88155 16.4072 7.57463 16.0706 7.24038C15.7918 6.9647 15.7582 6.61952 15.937 6.26965C16.0979 5.94008 16.4704 5.77062 16.825 5.86511C17.0101 5.91822 17.1795 6.01662 17.3178 6.15172C18.1097 6.92487 18.893 7.70583 19.6677 8.4946C20.1089 8.94209 20.1105 9.38177 19.6739 9.82224C18.8977 10.6094 18.1167 11.392 17.331 12.169C16.9195 12.5736 16.4415 12.6025 16.0878 12.2612C15.734 11.9199 15.759 11.4021 16.1659 10.9859C16.4556 10.6875 16.7492 10.3931 17.0405 10.0964C17.0569 10.0667 17.0702 10.0354 17.0811 10.0026" fill="white"/>
</svg>
