<?xml version="1.0" encoding="utf-8"?>
<!-- Generator: Adobe Illustrator 26.0.0, SVG Export Plug-In . SVG Version: 6.00 Build 0)  -->
<svg version="1.1" id="Layer_1" xmlns="http://www.w3.org/2000/svg" xmlns:xlink="http://www.w3.org/1999/xlink" x="0px" y="0px"
	 viewBox="0 0 26 21" style="enable-background:new 0 0 26 21;" xml:space="preserve">
<style type="text/css">
	.st0{fill:#7DBE38;}
</style>
<path class="st0" d="M25.8,1.3c0,0.6,0,1.1,0,1.7c0,0.1,0,0.1,0,0.2c-0.2,1.3-0.5,2.6-1.1,3.8c-0.7,1.3-1.6,2.4-2.9,3.2
	c-1.1,0.6-2.3,0.8-3.6,0.7c-0.3,0-0.5,0.1-0.7,0.3c-0.8,1-1.7,1.8-2.9,2.3c-0.2,0.1-0.2,0.2-0.2,0.4c0,1,0,2,0,3
	c0,0.3,0,0.3,0.3,0.3c1,0,2,0,3.1,0c0.3,0,0.3,0.1,0.3,0.3c0,0.6,0,1.1,0,1.7c0,0.2,0.1,0.3,0.3,0.3c0.2,0,0.5,0,0.7,0
	c0.1,0,0.2,0.1,0.2,0.2c0,0.3,0,0.7,0,1c0,0.1-0.1,0.2-0.2,0.2c-0.1,0-0.2,0-0.3,0c-4,0-8.1,0-12.1,0c-0.1,0-0.2,0-0.2,0
	c-0.1,0-0.2,0-0.2-0.2c0-0.3,0-0.6,0-0.9c0-0.1,0.1-0.2,0.2-0.2c0.2,0,0.5,0,0.7,0c0.2,0,0.3-0.1,0.3-0.3c0-0.6,0-1.1,0-1.7
	c0-0.3,0.1-0.3,0.3-0.3c1,0,2,0,3,0c0.3,0,0.3,0,0.3-0.4c0-0.9,0-1.7,0-2.6c0-0.5-0.1-0.8-0.6-1c-1.1-0.5-1.9-1.3-2.6-2.2
	C8,11,7.9,10.9,7.7,11c-0.5,0-1,0-1.4,0c-1.4-0.2-2.6-0.7-3.6-1.6c-1.2-1.1-1.8-2.5-2.3-4C0.2,4.5,0.1,3.8,0,3c0-0.6,0-1.1,0-1.7
	c1.1,0,2.2,0,3.3,0c0.5,0,1,0,1.5,0C5,1.3,5.1,1.2,5.1,1c0-0.2,0-0.4,0-0.6C5.1,0,5.1,0,5.5,0c4.9,0,9.8,0,14.8,0c0.1,0,0.1,0,0.2,0
	c0.2,0,0.3,0.1,0.3,0.3c0,0.2,0,0.4,0,0.6c0,0.4,0,0.4,0.4,0.4C22.7,1.3,24.2,1.3,25.8,1.3z M3.5,3C3,3,2.6,3.1,2.1,3
	c-0.2,0-0.3,0-0.3,0.3C2,4.6,2.3,5.8,3,6.9c0.8,1.4,2,2.1,3.6,2.3c0.2,0,0.2-0.1,0.1-0.2C5.9,7.2,5.4,5.3,5.2,3.3
	C5.2,3.1,5.1,3,4.9,3C4.4,3,4,3,3.5,3z M22.3,3c-0.5,0-0.9,0-1.4,0c-0.2,0-0.4,0.1-0.4,0.3c-0.1,1.1-0.3,2.1-0.6,3.2
	c-0.2,0.8-0.6,1.7-1,2.5c-0.1,0.1-0.1,0.2,0.1,0.2c1.2-0.1,2.2-0.5,3.1-1.5c1.1-1.3,1.6-2.9,1.8-4.5C24,3,23.9,3,23.8,3
	C23.3,3,22.8,3,22.3,3z"/>
</svg>
