<?xml version="1.0" encoding="utf-8"?>
<!-- Generator: Adobe Illustrator 26.0.0, SVG Export Plug-In . SVG Version: 6.00 Build 0)  -->
<svg version="1.1" id="Layer_1" xmlns="http://www.w3.org/2000/svg" xmlns:xlink="http://www.w3.org/1999/xlink" x="0px" y="0px"
	 viewBox="0 0 21 23" style="enable-background:new 0 0 21 23;" xml:space="preserve">
<style type="text/css">
	.st0{fill:#7DBE38;}
</style>
<path class="st0" d="M0.2,21.5c0.1-0.7,0.2-1.3,0.4-2c1.2-3.1,3.4-5.1,6.6-5.9c0.5-0.1,1-0.2,1.5-0.2c1,0,2,0,3,0
	c2.1,0,3.9,0.7,5.5,2.1c1.6,1.4,2.6,3.2,3,5.3c0,0.2,0.1,0.4,0.1,0.6c0,0.5,0,0.9,0,1.4c0,0.1,0,0.1-0.1,0.1c0,0-0.1,0-0.1,0
	C13.6,23,7,23,0.4,23c-0.2,0-0.2,0-0.2-0.2C0.2,22.4,0.2,21.9,0.2,21.5z"/>
<path class="st0" d="M11,0c0.6,0.1,1.2,0.2,1.8,0.5c2,1,3.2,2.6,3.5,4.8c0.4,3.3-1.8,6.1-4.8,6.7c-3.3,0.7-6.7-1.5-7.3-4.9
	c-0.6-3.3,1.5-6.4,4.8-7C9.3,0.1,9.5,0,9.6,0C10.1,0,10.5,0,11,0z"/>
</svg>
