<svg width="26" height="26" viewBox="0 0 26 26" fill="none" xmlns="http://www.w3.org/2000/svg">
<mask id="mask0_10_366" style="mask-type:alpha" maskUnits="userSpaceOnUse" x="0" y="0" width="26" height="26">
<circle cx="13" cy="12.9668" r="12.9668" fill="#C4C4C4"/>
</mask>
<g mask="url(#mask0_10_366)">
<path d="M8.67771 0H0.0332031V25.9335H8.67771V0Z" fill="#E90016"/>
<path d="M17.3222 0H8.67773V25.9335H17.3222V0Z" fill="white"/>
<path d="M25.9668 0H17.3223V25.9335H25.9668V0Z" fill="#E90016"/>
</g>
<ellipse cx="13" cy="12.9335" rx="13" ry="12.9335" fill="url(#paint0_radial_10_366)"/>
<defs>
<radialGradient id="paint0_radial_10_366" cx="0" cy="0" r="1" gradientUnits="userSpaceOnUse" gradientTransform="translate(7.38939 7.03197) rotate(50.4678) scale(19.1832 19.2122)">
<stop stop-color="white" stop-opacity="0.74"/>
<stop offset="1" stop-color="#FFFAFA" stop-opacity="0"/>
</radialGradient>
</defs>
</svg>
