<svg width="21" height="27" viewBox="0 0 21 27" fill="none" xmlns="http://www.w3.org/2000/svg">
<path d="M0.625244 24.9448C0.625244 20.6946 0.625244 16.4444 0.625244 12.1941C0.65164 12.1107 0.67698 12.0268 0.704431 11.9434C1.02012 10.9757 1.67579 10.3829 2.66722 10.1595C2.98819 10.0872 3.31391 10.1273 3.63805 10.12C3.96641 10.1126 3.97433 10.1099 3.97486 9.77311C3.97591 8.71095 3.97855 7.64826 3.9738 6.5861C3.97275 6.29469 3.99914 6.00698 4.04401 5.72138C4.61152 2.10041 7.94213 -0.39873 11.5948 0.0526361C14.9391 0.465465 17.4847 3.3352 17.4942 6.70646C17.4974 7.74276 17.4995 8.77852 17.4916 9.81482C17.49 10.0413 17.5618 10.139 17.7946 10.1221C17.9867 10.1083 18.1805 10.1184 18.3737 10.12C19.7315 10.1326 20.8612 11.2502 20.8628 12.6059C20.8681 16.5832 20.8644 20.5605 20.8655 24.5383C20.8655 24.7601 20.8327 24.9755 20.7673 25.1861C20.4611 26.1754 19.7716 26.7461 18.7913 27C13.4203 27 8.04983 27 2.67883 27C1.58658 26.7228 0.900287 26.0397 0.625244 24.9448ZM10.7248 10.1189C12.0936 10.1189 13.462 10.1194 14.8309 10.1189C15.1914 10.1189 15.1936 10.1168 15.1941 9.74619C15.1946 8.76269 15.1967 7.77971 15.1936 6.79621C15.1846 4.03152 12.8343 1.98638 10.0907 2.35434C7.96325 2.63994 6.29134 4.52882 6.27762 6.67004C6.27128 7.7058 6.27551 8.7421 6.27603 9.77787C6.27656 10.111 6.28448 10.1184 6.61812 10.1184C7.987 10.1194 9.35588 10.1189 10.7248 10.1189ZM9.64571 20.2131C9.64571 20.5816 9.6436 20.9501 9.64624 21.3181C9.65099 21.9864 10.0971 22.4552 10.7269 22.4578C11.3704 22.4605 11.8202 21.9912 11.8228 21.3075C11.826 20.5969 11.8334 19.8864 11.8186 19.1763C11.8133 18.9229 11.8936 18.7635 12.0979 18.6062C12.9415 17.9553 13.1833 16.8308 12.7087 15.8864C12.2383 14.9514 11.1687 14.461 10.1583 14.7492C9.29095 14.9968 8.73453 15.5818 8.56824 16.4681C8.40458 17.3397 8.68755 18.083 9.40023 18.6294C9.5813 18.7682 9.65891 18.9097 9.6494 19.1346C9.63462 19.4936 9.64571 19.8536 9.64571 20.2131Z" fill="#999999"/>
</svg>
