<svg width="30" height="22" viewBox="0 0 30 22" fill="none" xmlns="http://www.w3.org/2000/svg">
<path d="M27.6901 21.0654C19.1125 21.0654 10.5349 21.0654 1.95726 21.0654C1.86381 21.0452 1.76864 21.0314 1.67808 21.0026C1.59848 20.9772 1.48659 20.9835 1.45428 20.8941C1.41218 20.7788 1.53273 20.732 1.59618 20.6703C4.46692 17.9011 7.34112 15.1353 10.2078 12.3621C10.3959 12.1804 10.5095 12.1815 10.6981 12.3598C11.7923 13.3934 12.898 14.4149 14.0003 15.4405C14.5367 15.94 15.012 15.9411 15.5363 15.4376C16.6224 14.3947 17.7062 13.3507 18.7906 12.3067C19.1079 12.001 19.1061 12.0016 19.424 12.298C21.6395 14.3647 23.8555 16.4314 26.071 18.4981C26.8001 19.1781 27.5298 19.8582 28.2559 20.5417C28.4705 20.7436 28.4578 20.7978 28.1815 20.9051C28.0212 20.9668 27.8539 21.0124 27.6901 21.0654Z" fill="#999999"/>
<path d="M0 2.48547C0.182269 2.56219 0.303398 2.71677 0.44183 2.8454C3.23009 5.43524 6.01546 8.02738 8.80142 10.619C9.06674 10.8658 9.0679 10.8681 8.80084 11.1254C5.99066 13.8317 3.18164 16.5381 0.366269 19.2387C0.278018 19.3235 0.159197 19.6078 0 19.2819C0 13.6829 0 8.08449 0 2.48547Z" fill="#999999"/>
<path d="M14.7806 0.0011536C18.8967 0.0011536 23.0122 0.00173041 27.1282 0C27.4962 0 27.8556 0.0374921 28.1994 0.177078C28.5177 0.306858 28.5293 0.361655 28.2818 0.599874C26.8387 1.99054 25.3944 3.38063 23.9501 4.77015C20.9715 7.63628 17.9905 10.4989 15.0194 13.3726C14.8008 13.5837 14.6803 13.5485 14.483 13.3645C11.1762 10.2728 7.86479 7.18695 4.55452 4.09933C3.36228 2.98726 2.16945 1.87576 0.978354 0.763109C0.737251 0.538156 0.741865 0.512777 1.02565 0.332815C1.44729 0.0657554 1.91912 0.00173041 2.40421 0.0011536C6.52949 0.000576802 10.6548 0.0011536 14.7806 0.0011536Z" fill="#999999"/>
<path d="M29.4917 10.5982C29.4917 13.2435 29.4917 15.8881 29.4917 18.5333C29.4917 18.61 29.4957 18.6867 29.4905 18.7634C29.4842 18.8557 29.5326 18.9855 29.4426 19.0305C29.3267 19.0882 29.2621 18.9526 29.1906 18.8863C26.3706 16.2596 23.5518 13.6316 20.7341 11.002C20.4318 10.7199 20.4336 10.7153 20.7283 10.4315C23.5379 7.72404 26.3487 5.01826 29.1594 2.31191C29.201 2.27211 29.2413 2.23116 29.2857 2.19424C29.3284 2.15848 29.3723 2.10599 29.4357 2.13772C29.4969 2.16771 29.4865 2.2352 29.4888 2.29057C29.4928 2.38632 29.4922 2.48207 29.4922 2.57782C29.4917 5.25072 29.4917 7.92477 29.4917 10.5982Z" fill="#999999"/>
</svg>
